%!PS-Adobe-3.0
%%Title: Grayimage

% make Grayimage.tif and BWimage.tif
% by Ghostscript and ImageMagick on ubuntu 12.04
(
gs -dNOPAUSE -dBATCH -sDEVICE=tiffgray -sCompression=lzw -r2400 -q \
   -sOutputFile="Grayimage.tif" "Grayimage.ps"
convert Grayimage.tif -define quantum:polarity=min-is-white BWimage.tif
)

<< /PageSize [ 225 60 ]>> setpagedevice

0 0 translate

/DeviceGray setcolorspace

200 25 scale
/my_Gray currentfile /ASCIIHexDecode filter def
<<
  /ImageType 1
  /Width  20
  /Height 10
  /ImageMatrix [ 20 0 0 -10 0 10 ]
  /BitsPerComponent 8
  /Interpolate false
  /MultipleDataSources true
  /Decode [1 0]
  /DataSource [ my_Gray ]
>> image
ffff00000000000000000000000000000000ffff
00000000000000000000000000000000ffff0000
0000000000000000000000000000ffff00000000
000000000000000000000000ffff000000000000
00000000000000000000ffff0000000000000000
0000000000000000ffff00000000000000000000
000000000000ffff000000000000000000000000
00000000ffff0000000000000000000000000000
0000ffff00000000000000000000000000000000
0000ffffffff00000000000000000000ffffffff >

showpage
